<?xml version="1.0" encoding="utf-8"?>
<!-- Generator: Adobe Illustrator 23.0.0, SVG Export Plug-In . SVG Version: 6.00 Build 0)  -->
<svg version="1.1" id="Capa_1" xmlns="http://www.w3.org/2000/svg" xmlns:xlink="http://www.w3.org/1999/xlink" x="0px" y="0px"
	 viewBox="0 0 512 512" style="enable-background:new 0 0 512 512;" xml:space="preserve">
<style type="text/css">
	.st0{fill:#014F87;}
</style>
<g>
	<g>
		<path class="st0" d="M193,151.6c-2,2.2-3.3,3.6-4.3,4.6C190.6,154.3,193,151.6,193,151.6z"/>
		<path class="st0" d="M281.9,168.1c6.7,8.2,10,17.9,10,29c0,8-2.3,15.6-6.8,23c-2.5,4.2-5.8,8.2-9.9,12.1l-13.6,13.5
			c-13.1,12.8-21.5,24.2-25.4,34.2c-3.9,9.9-5.8,23-5.8,39.3h30.3c0-14.3,1.6-25.1,4.9-32.5c3.2-7.3,10.3-16.3,21.2-26.9
			c15-14.5,25-25.6,29.9-33.1s7.4-17.3,7.4-29.3c0-19.9-6.7-36.2-20.2-49c-13.5-12.8-31.4-19.2-53.8-19.2
			c-24.2,0-43.2,7.5-57.1,22.4c-13.9,14.9-20.8,34.7-20.8,59.2h30.3c0.6-14.8,2.9-26.1,7-33.9c7.3-14.1,20.4-21.1,39.4-21.1
			C264.3,155.8,275.3,159.9,281.9,168.1z"/>
		<path class="st0" d="M512,256C512,114.6,397.4,0,256,0C114.6,0,0,114.6,0,256c0,141.4,114.6,256,256,256
			C397.4,512,512,397.4,512,256z M23.3,256C23.3,127.5,127.5,23.3,256,23.3S488.7,127.5,488.7,256S384.5,488.7,256,488.7
			S23.3,384.5,23.3,256z"/>
		<rect x="229.7" y="347.4" class="st0" width="33.9" height="35.4"/>
	</g>
</g>
</svg>
